T,r,V
0,0.99984,1.0001600256041
2,0.99994,1.00006000360022
4,0.99997,1.00003000090003
6,0.99994,1.00006000360022
8,0.99985,1.00015002250338
10,0.9997,1.00030009002701
12,0.9995,1.00050025012506
14,0.99924,1.00076057803931
16,0.99894,1.00106112479228
18,0.9986,1.00140196274785
20,0.9982,1.00180324584252
22,0.99777,1.00223498401435
24,0.9973,1.00270730973629
26,0.99678,1.0032304018941
28,0.99623,1.0037842666854
30,0.99565,1.0043690051725
32,0.99503,1.00499482427666
34,0.99437,1.00566187636393
36,0.99369,1.00635006893498
38,0.99297,1.00707977078864
40,0.99222,1.00784100300337
42,0.99144,1.00863390623739
44,0.99063,1.00945862733816
46,0.98979,1.01031531941119
48,0.98893,1.0111939166574
50,0.98804,1.01210477308611
52,0.98712,1.01304805899992
54,0.98618,1.01401366890426
56,0.98521,1.01501202789253
58,0.98422,1.01603300075186
60,0.9832,1.01708706265256
62,0.98216,1.01816404659119
64,0.98109,1.01927448042483
66,0.98001,1.02039775104336
68,0.9789,1.02155480641536
70,0.97777,1.02273540812256
72,0.97661,1.02395019506251
74,0.97544,1.0251783810383
76,0.97424,1.02644112333717
78,0.97303,1.02771754211073
80,0.97179,1.02902890542195
82,0.97053,1.03036485219416
84,0.96926,1.03171491653426
86,0.96796,1.03310054134468
88,0.96665,1.03450059483784
90,0.96531,1.03593664211497
92,0.96396,1.03738744346238
94,0.96259,1.03886389844067
96,0.9612,1.04036620890553
98,0.95979,1.04189458110628
100,0.95836,1.04344922576067
